{
	"name":"generatorRight",
	"bone":"generatorRightAttach",
	"mountPoints":[
		{
			"type":"Shield",
			"name":"forceFieldRight",
			"bone":"forceFieldRight",
			"path":"generatorRight",
			"scale":[25.0,25.0,25.0],
			"rotate":[60.0,90.0,90.0],		
		}
	]
}