{
	"name":"wingLeft",
	"bone":"wingLeftAttach",
	"mountPoints":[
		{
			"type":"Turret",
			"name":"TurretLeftMount",
			"bone":"TurretLeftMount",
			"path":"wingLeft",
			"rotate":[0.0,270.0,270.0]
		},
		{
			"type":"Weapon",
			"name":"WingGunLeftMount",
			"bone":"WingGunLeftMount",
			"path":"wingLeft"
		}
	]
}