{
    "name": "Boss Swarm",
    "firstStage": "finalStage",
    "stages": [
        {
        	"name":"finalStage",
        	"scenes":[
				{
                    "name": "testScene1",
                    "minTime": "1.0",
                    "maxTime": "60.0",
                    "endEventsOnStart": "0",
                    "events": [
					{
                            "startTime": "1",
                            "type": "spawnEnemy",
                            "typeOptions": {
                                "enemyType": "EnemyShip",
                                "enemyCount": "13",
                                "startPositionH": "0.0",
                                "startPositionV": "400.0",
                                "movementType": "forward",
                                "formationType": "x",
                                "formationDirection": "no_direction"
                            }
                        },
                        {
                            "startTime": "5",
                            "type": "spawnEnemy",
                            "typeOptions": {
                                "enemyType": "EnemyShip2",
                                "enemyCount": "9",
                                "startPositionH": "750.0",
                                "startPositionV": "0.0",
                                "movementType": "sinusoidal",
                                "formationType": "x",
                                "formationDirection": "no_direction"
                            }
                        },
                        {
                            "startTime": "10",
                            "type": "spawnEnemy",
                            "typeOptions": {
                                "enemyType": "EnemyShip",
                                "enemyCount": "17",
                                "startPositionH": "0.0",
                                "startPositionV": "200.0",
                                "movementType": "sinusoidal",
                                "formationType": "x",
                                "formationDirection": "no_direction"
                            }
                        },
                        {
                            "startTime": "15",
                            "type": "spawnEnemy",
                            "typeOptions": {
                                "enemyType": "EnemyShip",
                                "enemyCount": "9",
                                "startPositionH": "0.0",
                                "startPositionV": "400.0",
                                "movementType": "forward",
                                "formationType": "arrow",
                                "formationDirection": "down"
                            }
                        },
                        {
                            "startTime": "20",
                            "type": "spawnEnemy",
                            "typeOptions": {
                                "enemyType": "EnemyShip",
                                "enemyCount": "11",
                                "startPositionH": "0.0",
                                "startPositionV": "400.0",
                                "movementType": "forward",
                                "formationType": "arrow",
                                "formationDirection": "up"
                            }
                        }                    
                    ]
                },
                {
                    "name": "testScene2",
                    "minTime": "1.0",
                    "maxTime": "60.0",
                    "endEventsOnStart": "0",
                    "events": [
                       {
                            "startTime": "1",
                            "type": "spawnEnemy",
                            "typeOptions": {
                                "enemyType": "EnemyShip2",
                                "enemyCount": "7",
                                "startPositionH": "0.0",
                                "startPositionV": "150.0",
                                "movementType": "vertical",
                                "formationType": "arrow",
                                "formationDirection": "down"
                            }
                        },
						{
                            "startTime": "5",
							"minTime": "10.0",
							"maxTime": "30.0",
							"killShipsOnMaxTime": "false",
                            "type": "spawnEnemy",
                            "typeOptions": {
                                "enemyType": "BiggerEnemyShip",
                                "enemyCount": "2",
                                "startPositionH": "-0.0",
                                "startPositionV": "-50.0",
                                "movementType": "horizontal",
                                "formationType": "line",
                                "formationDirection": "down",
                                "formationSize": [300,64]
                            }
						},
                        {
                            "startTime": "15",
                            "type": "spawnEnemy",
                            "typeOptions": {
                                "enemyType": "EnemyShip",
                                "enemyCount": "15",
                                "startPositionH": "750.0",
                                "startPositionV": "0.0",
                                "movementType": "horizontal",
                                "formationType": "line",
                                "formationDirection": "down"
                            }
                        },
                        {
                            "startTime": "18",
                            "type": "spawnEnemy",
                            "typeOptions": {
                                "enemyType": "EnemyShip",
                                "enemyCount": "10",
                                "startPositionH": "750.0",
                                "startPositionV": "0.0",
                                "movementType": "horizontal",
                                "formationType": "line",
                                "formationDirection": "down"
                            }
                        },
						{
                            "startTime": "25",
                            "type": "spawnEnemy",
                            "typeOptions": {
                                "enemyType": "EnemyShip",
                                "enemyCount": "10",
                                "startPositionH": "750.0",
                                "startPositionV": "0.0",
                                "movementType": "horizontal",
                                "formationType": "line",
                                "formationDirection": "down"
                            }
                        },
						{
                            "startTime": "15",
                            "type": "spawnEnemy",
							"minTime": "10.0",
							"maxTime": "120.0",
							"killShipsOnMaxTime": "false",
                            "typeOptions": {
                                "enemyType": "BiggestEnemyShip",
                                "enemyCount": "1",
                                "startPositionH": "0.0",
                                "startPositionV": "0.0",
                                "movementType": "horizontal",
                                "formationType": "arrow",
                                "formationDirection": "down",
								"formationSize": [200,64],
								"lifeBar":"true"
                            }
                        }
                    ]
                }        	        	
        	]
        }
    ]
}