{
    "name": "Boss level",
    "firstStage": "Boss_stage",
    "stages": [
        {
            "name": "Boss_stage",
            "nextStage": "",
            "scenes": [
                {
                    "name": "Boss_scene",
                    "minTime": "20.0",
                    "maxTime": "300.0",
                    "killShipsOnMaxTime": "true",
                    "events": [
                        {
                            "startTime": "1",
                            "type": "spawnEnemy",
							"minTime": "10.0",
							"maxTime": "120.0",
							"killShipsOnMaxTime": "false",
                            "typeOptions": {
                                "enemyType": "ShieldBash",
                                "enemyCount": "1",
                                "startPositionH": "0.0",
                                "startPositionV": "0.0",
                                "movementType": "horizontal",
                                "formationType": "arrow",
                                "formationDirection": "down",
								"formationSize": [200,64],
								"lifeBar":"true"
                            }
                        }                 
                    ]
                }             
            ]
        }
    ]
}