{
	"gunName":"BigerEnemyGun",
	"modelName":"BiggerGun",
	"baseName":"",
	"attachBonePath":"",
	"attachBone":"AttachPoint",
	"muzzleBonePath":"AttachPoint/BiggerGun",
	"muzzleBone":"Muzzle",
	"projectile":"EnemyBolt",
	"rateOfFire":"2",
	"damage":"75"
}